Introduction to datadict • datadict
…
Working with datadict

To begin working with datadict, load the
package:

library(datadict)

Generating a data dictionary

To generate a data dictionary, pass your data frame or tibble to the
data argument of the generate_dict() function.
This produces a tibble summarizing every column in your dataset.

generate_dict(data = gss)
#> # A tibble: 772 × 7
#>    variable_name variable_label       variable_type variable_values value_labels
#>    <chr>         <chr>                <chr>         <chr>           <chr>       
#>  1 id            Respondent ID number numeric       1 - 4150        NA          
#>  2 id            Respondent ID number numeric       NA              system miss…
#>  3 year          GSS year for this r… labelled      -100            iap         
#>  4 year          GSS year for this r… labelled      -99             no answer   
#>  5 year          GSS year for this r… labelled      -98             don't know  
#>  6 year          GSS year for this r… labelled      -97             skipped on …
#>  7 year          GSS year for this r… labelled      -96             see codebook
#>  8 year          GSS year for this r… labelled      -95             uncodeable  
#>  9 year          GSS year for this r… labelled      -94             not imputab…
#> 10 year          GSS year for this r… labelled      -90             refused     
#> # ℹ 762 more rows
#> # ℹ 2 more variables: n_size <int>, is_range <lgl>

To build a dictionary for specific variables in your dataset, pass a
character vector of column names to the columns
argument

generate_dict(
  data = gss, 
  columns = c("age", "sexnow1", "hispanic", "race", "martial")
)
#> # A tibble: 136 × 7
#>    variable_name variable_label    variable_type variable_values value_labels   
#>    <chr>         <chr>             <chr>         <chr>           <chr>          
#>  1 age           Age of respondent labelled      -100            iap            
#>  2 age           Age of respondent labelled      -99             no answer      
#>  3 age           Age of respondent labelled      -98             don't know     
#>  4 age           Age of respondent labelled      -97             skipped on web 
#>  5 age           Age of respondent labelled      -96             see codebook   
#>  6 age           Age of respondent labelled      -95             uncodeable     
#>  7 age           Age of respondent labelled      -94             not imputable  
#>  8 age           Age of respondent labelled      -90             refused        
#>  9 age           Age of respondent labelled      -80             not available …
#> 10 age           Age of respondent labelled      -70             not available …
#> # ℹ 126 more rows
#> # ℹ 2 more variables: n_size <int>, is_range <lgl>
…
Use the label_fallback argument to provide a placeholder
for variables that lack a formal label. If left unspecified, this
defaults to NO QUESTION LABEL.

generate_dict(data = nlsy)
#> # A tibble: 34 × 7
#>    variable_name variable_label    variable_type variable_values    value_labels
#>    <chr>         <chr>             <chr>         <chr>              <chr>       
#>  1 CID           NO QUESTION LABEL numeric       303 - 1266703      NA          
#>  2 CID           NO QUESTION LABEL numeric       NA                 system miss…
#>  3 race          NO QUESTION LABEL character     Black              Black       
#>  4 race          NO QUESTION LABEL character     Hispanic           Hispanic    
#>  5 race          NO QUESTION LABEL character     Non-Black,Non-His… Non-Black,N…
#>  6 race          NO QUESTION LABEL character     NA                 system miss…
#>  7 gender        NO QUESTION LABEL numeric       0                  0           
#>  8 gender        NO QUESTION LABEL numeric       1                  1           
#>  9 gender        NO QUESTION LABEL numeric       NA                 system miss…
#> 10 birthord      NO QUESTION LABEL numeric       1                  1           
#> # ℹ 24 more rows
#> # ℹ 2 more variables: n_size <int>, is_range <lgl>

generate_dict(data = nlsy, label_fallback = "None provided")
#> # A tibble: 34 × 7
#>    variable_name variable_label variable_type variable_values       value_labels
#>    <chr>         <chr>          <chr>         <chr>                 <chr>       
#>  1 CID           None provided  numeric       303 - 1266703         NA          
#>  2 CID           None provided  numeric       NA                    system miss…
#>  3 race          None provided  character     Black                 Black       
#>  4 race          None provided  character     Hispanic              Hispanic    
#>  5 race          None provided  character     Non-Black,Non-Hispan… Non-Black,N…
#>  6 race          None provided  character     NA                    system miss…
#>  7 gender        None provided  numeric       0                     0           
#>  8 gender        None provided  numeric       1                     1           
#>  9 gender        None provided  numeric       NA                    system miss…
#> 10 birthord      None provided  numeric       1                     1           
#> # ℹ 24 more rows
#> # ℹ 2 more variables: n_size <int>, is_range <lgl>
…
  to_col = "new_labels", 
  from_delim = ";", 
  to_delim = ";", 
  remove_na = FALSE, 
  remove_empty = FALSE, 
  min_rows = 1L, 
  run_check = TRUE
)
#> ✔ `data` is a valid <data.frame>.
#> ✔ column_name is a valid column in `data`.
#> ✔ old_values is a valid column in `data`.
#> ✔ new_labels is a valid column in `data`.
#> ✔ All categories in column_name meet the 1-row minimum.
#> ✔ All categories in column_name have an equal number of from/to values.
#> # A tibble: 115 × 3
#>    column_name      old_values new_labels    
#>    <chr>            <chr>      <chr>         
#>  1 school_decision  A          Accepted      
#>  2 school_decision  W          Waitlisted    
#>  3 school_decision  R          Rejected      
#>  4 student_decision A          Accepted Offer
#>  5 student_decision D          Declined Offer
#>  6 ft_pt            pt         Part-time     
#>  7 ft_pt            ft         Full-time     
#>  8 ft_pt            sub        Submatriculate
#>  9 applied_dual_prg NODUAL     No            
#> 10 applied_dual_prg YES        Yes           
#> # ℹ 105 more rows
…
