Generate a data dictionary — generate_dict • datadict
…
value_labels: The descriptive labels assigned to specific data values.

n_size: The frequency count for each value/label pair.

is_range: A boolean flag indicating if the variable_values column
represents a summarized range rather than a discrete value.

    Author

    Ama Nyame-Mensah

    Examples

generate_dict(data = nlsy)
#> # A tibble: 34 × 7
#>    variable_name variable_label    variable_type variable_values    value_labels
#>    <chr>         <chr>             <chr>         <chr>              <chr>       
#>  1 CID           NO QUESTION LABEL numeric       303 - 1266703      NA          
#>  2 CID           NO QUESTION LABEL numeric       NA                 system miss…
#>  3 race          NO QUESTION LABEL character     Black              Black       
#>  4 race          NO QUESTION LABEL character     Hispanic           Hispanic    
#>  5 race          NO QUESTION LABEL character     Non-Black,Non-His… Non-Black,N…
#>  6 race          NO QUESTION LABEL character     NA                 system miss…
#>  7 gender        NO QUESTION LABEL numeric       0                  0           
#>  8 gender        NO QUESTION LABEL numeric       1                  1           
#>  9 gender        NO QUESTION LABEL numeric       NA                 system miss…
#> 10 birthord      NO QUESTION LABEL numeric       1                  1           
#> # ℹ 24 more rows
#> # ℹ 2 more variables: n_size <int>, is_range <lgl>

# example shortening variable labels to 25 characters
generate_dict(data = gss, label_width = 25)
#> # A tibble: 772 × 7
#>    variable_name variable_label       variable_type variable_values value_labels
#>    <chr>         <chr>                <chr>         <chr>           <chr>       
#>  1 id            Respondent ID number numeric       1 - 4150        NA          
#>  2 id            Respondent ID number numeric       NA              system miss…
#>  3 year          GSS year for this r… labelled      -100            iap         
#>  4 year          GSS year for this r… labelled      -99             no answer   
#>  5 year          GSS year for this r… labelled      -98             don't know  
#>  6 year          GSS year for this r… labelled      -97             skipped on …
#>  7 year          GSS year for this r… labelled      -96             see codebook
#>  8 year          GSS year for this r… labelled      -95             uncodeable  
#>  9 year          GSS year for this r… labelled      -94             not imputab…
#> 10 year          GSS year for this r… labelled      -90             refused     
#> # ℹ 762 more rows
#> # ℹ 2 more variables: n_size <int>, is_range <lgl>

# example selecting a subset of variables from a tibble
generate_dict(
  data = gss,
  columns = c("year", "age", "sexnow1", "hispanic", "race", "marital")
)
#> # A tibble: 168 × 7
#>    variable_name variable_label       variable_type variable_values value_labels
#>    <chr>         <chr>                <chr>         <chr>           <chr>       
#>  1 year          GSS year for this r… labelled      -100            iap         
#>  2 year          GSS year for this r… labelled      -99             no answer   
#>  3 year          GSS year for this r… labelled      -98             don't know  
#>  4 year          GSS year for this r… labelled      -97             skipped on …
#>  5 year          GSS year for this r… labelled      -96             see codebook
#>  6 year          GSS year for this r… labelled      -95             uncodeable  
#>  7 year          GSS year for this r… labelled      -94             not imputab…
#>  8 year          GSS year for this r… labelled      -90             refused     
#>  9 year          GSS year for this r… labelled      -80             not availab…
#> 10 year          GSS year for this r… labelled      -70             not availab…
#> # ℹ 158 more rows
#> # ℹ 2 more variables: n_size <int>, is_range <lgl>
…
